EESchema Schematic File Version 4
EELAYER 30 0
EELAYER END
$Descr A4 11693 8268
encoding utf-8
Sheet 1 1
Title "Unijoysticle 2"
Date "2021-01-31"
Rev "Amiga Rev B"
Comp "Retro Moe"
Comment1 "Original Project by Ricardo Quesada"
Comment2 "Amiga Version by SukkoPera"
Comment3 ""
Comment4 ""
$EndDescr
Text GLabel 6610 5740 0    50   Input ~ 0
GPIO_J1UP
Text GLabel 1100 1350 0    50   Input ~ 0
GPIO_J1UP
Text GLabel 1100 1900 0    50   Input ~ 0
GPIO_J1DOWN
Text GLabel 1100 2450 0    50   Input ~ 0
GPIO_J1LEFT
Text GLabel 1100 3000 0    50   Input ~ 0
GPIO_J1RIGHT
Text GLabel 1100 3600 0    50   Input ~ 0
GPIO_J1FIRE
Text GLabel 3400 1350 0    50   Input ~ 0
GPIO_J2UP
Text GLabel 3400 1900 0    50   Input ~ 0
GPIO_J2DOWN
Text GLabel 3400 2450 0    50   Input ~ 0
GPIO_J2LEFT
Text GLabel 3400 3000 0    50   Input ~ 0
GPIO_J2RIGHT
Text GLabel 6610 3850 0    50   Input ~ 0
GPIO_J2FIRE
Text GLabel 8860 3850 2    50   Input ~ 0
GPIO_J2RIGHT
Text GLabel 6610 3950 0    50   Input ~ 0
GPIO_J2LEFT
Text GLabel 6610 4050 0    50   Input ~ 0
GPIO_J2DOWN
Text GLabel 6610 4150 0    50   Input ~ 0
GPIO_J2UP
Text GLabel 6610 5640 0    50   Input ~ 0
GPIO_J1DOWN
Text GLabel 6610 5540 0    50   Input ~ 0
GPIO_J1LEFT
Text GLabel 6610 5440 0    50   Input ~ 0
GPIO_J1RIGHT
Text GLabel 8860 5340 2    50   Input ~ 0
GPIO_J1FIRE
Text GLabel 8860 5540 2    50   Input ~ 0
GPIO_J1POTX
Text GLabel 8860 3750 2    50   Input ~ 0
GPIO_J2POTX
Wire Wire Line
	7000 1300 6475 1300
Wire Wire Line
	7000 1400 6475 1400
Wire Wire Line
	7000 1500 6475 1500
Wire Wire Line
	7000 1700 6475 1700
Wire Wire Line
	7000 1900 6475 1900
Wire Wire Line
	7000 2000 6645 2000
Wire Wire Line
	8800 2050 9070 2050
Text GLabel 6475 1300 0    50   Input ~ 0
J1UP
Text GLabel 6475 1500 0    50   Input ~ 0
J1DOWN
Text GLabel 6475 1700 0    50   Input ~ 0
J1LEFT
Text GLabel 6475 1400 0    50   Input ~ 0
J1FIRE
Text GLabel 9195 2050 2    50   Input ~ 0
J2POTX
Text GLabel 6475 2000 0    50   Input ~ 0
J1POTX
Text GLabel 6475 1900 0    50   Input ~ 0
J1RIGHT
Text GLabel 9170 1350 2    50   Input ~ 0
J2UP
Text GLabel 9170 1550 2    50   Input ~ 0
J2DOWN
Text GLabel 9170 1750 2    50   Input ~ 0
J2LEFT
Text GLabel 9170 1950 2    50   Input ~ 0
J2RIGHT
Text GLabel 9170 1450 2    50   Input ~ 0
J2FIRE
Text GLabel 2100 3600 2    50   Input ~ 0
J1FIRE
Text GLabel 2100 1350 2    50   Input ~ 0
J1UP
Text GLabel 2100 1900 2    50   Input ~ 0
J1DOWN
Text GLabel 2100 2450 2    50   Input ~ 0
J1LEFT
Text GLabel 2100 3000 2    50   Input ~ 0
J1RIGHT
$Comp
L power:GND #PWR0107
U 1 1 5C6BCB4E
P 8660 6040
F 0 "#PWR0107" H 8660 5790 50  0001 C CNN
F 1 "GND" H 8665 5867 50  0000 C CNN
F 2 "" H 8660 6040 50  0001 C CNN
F 3 "" H 8660 6040 50  0001 C CNN
	1    8660 6040
	-1   0    0    -1  
$EndComp
Wire Wire Line
	6610 5640 7010 5640
Wire Wire Line
	6610 5540 7010 5540
Wire Wire Line
	7010 3950 6610 3950
Wire Wire Line
	8660 5940 8410 5940
Wire Wire Line
	8660 3550 8410 3550
$Comp
L power:VDD #PWR0104
U 1 1 5C703EAD
P 8660 3215
F 0 "#PWR0104" H 8660 3065 50  0001 C CNN
F 1 "VDD" V 8678 3342 50  0000 L CNN
F 2 "" H 8660 3215 50  0001 C CNN
F 3 "" H 8660 3215 50  0001 C CNN
	1    8660 3215
	-1   0    0    -1  
$EndComp
Wire Wire Line
	8800 1350 9170 1350
Wire Wire Line
	8800 1450 9170 1450
Wire Wire Line
	8800 1550 9170 1550
Wire Wire Line
	9170 1750 8800 1750
Wire Wire Line
	9170 1950 8800 1950
Wire Wire Line
	7010 4150 6610 4150
Wire Wire Line
	7010 5740 6610 5740
Wire Wire Line
	7010 4050 6610 4050
Wire Wire Line
	7010 5440 6610 5440
Wire Wire Line
	8860 3850 8410 3850
Wire Wire Line
	6610 3850 7010 3850
Wire Wire Line
	8860 5340 8410 5340
Wire Wire Line
	8860 5540 8410 5540
Wire Wire Line
	1900 1350 2100 1350
Wire Wire Line
	1900 1900 2100 1900
Wire Wire Line
	1900 3000 2100 3000
Wire Wire Line
	1900 2450 2100 2450
Wire Wire Line
	1900 3600 2100 3600
Text GLabel 1100 4200 0    50   Input ~ 0
GPIO_J1POTX
Wire Wire Line
	3400 1350 3600 1350
Wire Wire Line
	3400 1900 3600 1900
Wire Wire Line
	3400 2450 3600 2450
Wire Wire Line
	3400 3000 3600 3000
Text GLabel 3400 3600 0    50   Input ~ 0
GPIO_J2FIRE
Wire Wire Line
	3400 3600 3600 3600
Wire Wire Line
	3400 4200 3600 4200
Wire Wire Line
	1100 1350 1300 1350
Wire Wire Line
	1100 1900 1300 1900
Wire Wire Line
	1100 2450 1300 2450
Wire Wire Line
	1100 3000 1300 3000
Wire Wire Line
	1100 3600 1300 3600
Wire Wire Line
	1100 4200 1300 4200
$Comp
L Device:LED LD1
U 1 1 5C86DF58
P 1150 6550
F 0 "LD1" H 1141 6766 50  0000 C CNN
F 1 "LED" H 1141 6675 50  0000 C CNN
F 2 "LED_THT:LED_D3.0mm" H 1150 6550 50  0001 C CNN
F 3 "~" H 1150 6550 50  0001 C CNN
	1    1150 6550
	1    0    0    -1  
$EndComp
$Comp
L Device:LED LD2
U 1 1 5C86DFE0
P 1150 6950
F 0 "LD2" H 1141 7166 50  0000 C CNN
F 1 "LED" H 1141 7075 50  0000 C CNN
F 2 "LED_THT:LED_D3.0mm" H 1150 6950 50  0001 C CNN
F 3 "~" H 1150 6950 50  0001 C CNN
	1    1150 6950
	1    0    0    -1  
$EndComp
$Comp
L Switch:SW_Push SW1
U 1 1 5C86E310
P 1150 7500
F 0 "SW1" H 1150 7785 50  0000 C CNN
F 1 "SW_Push" H 1150 7694 50  0000 C CNN
F 2 "Button_Switch_THT:SW_PUSH_6mm" H 1150 7700 50  0001 C CNN
F 3 "" H 1150 7700 50  0001 C CNN
	1    1150 7500
	1    0    0    -1  
$EndComp
Wire Wire Line
	1300 6550 1500 6550
Wire Wire Line
	1300 6950 1500 6950
Wire Wire Line
	1000 6550 750  6550
Wire Wire Line
	1000 6950 750  6950
Wire Wire Line
	1350 7500 1550 7500
Wire Wire Line
	750  7500 950  7500
Wire Wire Line
	8410 3450 8860 3450
Text GLabel 8860 3450 2    50   Input ~ 0
GPIO_SWITCH_JOY
Text GLabel 1550 7500 2    50   Input ~ 0
GPIO_SWITCH_JOY
Text GLabel 1950 6550 2    50   Input ~ 0
GPIO_J1LED
Text GLabel 1950 6950 2    50   Input ~ 0
GPIO_J2LED
Text GLabel 6610 5340 0    50   Input ~ 0
GPIO_J1LED
Text GLabel 6610 5140 0    50   Input ~ 0
GPIO_J2LED
Wire Wire Line
	6610 5340 7010 5340
Wire Wire Line
	6610 5140 7010 5140
Wire Wire Line
	1800 6550 1950 6550
Wire Wire Line
	1800 6950 1950 6950
Wire Wire Line
	8800 1850 8900 1850
Wire Wire Line
	8900 1850 8900 2375
Wire Wire Line
	7000 1800 6900 1800
Wire Wire Line
	6900 1800 6900 2355
$Comp
L power:GND #PWR0102
U 1 1 5C8CE940
P 6900 2400
F 0 "#PWR0102" H 6900 2150 50  0001 C CNN
F 1 "GND" H 6905 2227 50  0000 C CNN
F 2 "" H 6900 2400 50  0001 C CNN
F 3 "" H 6900 2400 50  0001 C CNN
	1    6900 2400
	1    0    0    -1  
$EndComp
$Comp
L power:GND #PWR0108
U 1 1 5C8CEFE9
P 8900 2400
F 0 "#PWR0108" H 8900 2150 50  0001 C CNN
F 1 "GND" H 8905 2227 50  0000 C CNN
F 2 "" H 8900 2400 50  0001 C CNN
F 3 "" H 8900 2400 50  0001 C CNN
	1    8900 2400
	1    0    0    -1  
$EndComp
Wire Wire Line
	750  6550 750  6950
Wire Wire Line
	750  6950 750  7500
Connection ~ 750  6950
Wire Wire Line
	750  7500 750  7550
Connection ~ 750  7500
$Comp
L power:GND #PWR0109
U 1 1 5C8DE08B
P 750 7550
F 0 "#PWR0109" H 750 7300 50  0001 C CNN
F 1 "GND" H 755 7377 50  0000 C CNN
F 2 "" H 750 7550 50  0001 C CNN
F 3 "" H 750 7550 50  0001 C CNN
	1    750  7550
	1    0    0    -1  
$EndComp
Wire Wire Line
	8660 5940 8660 6040
Text Notes 2100 6150 0    79   ~ 0
7405s: Joystick switches
Wire Notes Line
	9600 2900 5750 2900
Wire Notes Line
	550  700  9600 700 
Text Notes 7250 2750 0    79   ~ 0
DB9's: Port A, Port B
Wire Notes Line
	350  6300 9400 6300
Wire Notes Line
	9600 700  9600 6300
Text Notes 5875 6195 0    79   ~ 0
ESP32
Wire Notes Line
	3100 7800 3100 6300
Wire Notes Line
	550  -2150 550  4950
Text Notes 1200 7700 0    79   ~ 0
LEDs & Push Button
$Comp
L Device:R R1
U 1 1 5C9DFE27
P 1650 6550
F 0 "R1" V 1443 6550 50  0000 C CNN
F 1 "150" V 1534 6550 50  0000 C CNN
F 2 "Resistor_THT:R_Axial_DIN0204_L3.6mm_D1.6mm_P7.62mm_Horizontal" V 1580 6550 50  0001 C CNN
F 3 "~" H 1650 6550 50  0001 C CNN
	1    1650 6550
	0    1    1    0   
$EndComp
$Comp
L Device:R R2
U 1 1 5C9DF1A9
P 1650 6950
F 0 "R2" V 1443 6950 50  0000 C CNN
F 1 "150" V 1534 6950 50  0000 C CNN
F 2 "Resistor_THT:R_Axial_DIN0204_L3.6mm_D1.6mm_P7.62mm_Horizontal" V 1580 6950 50  0001 C CNN
F 3 "~" H 1650 6950 50  0001 C CNN
	1    1650 6950
	0    1    1    0   
$EndComp
Wire Wire Line
	8800 1650 8900 1650
Wire Wire Line
	8900 1650 8900 1200
Wire Wire Line
	7000 1600 6900 1600
Wire Wire Line
	6900 1600 6900 1200
Text GLabel 6900 1200 1    50   Input ~ 0
J1POWER
Text GLabel 8900 1200 1    50   Input ~ 0
J2POWER
Text GLabel 3725 6790 0    50   Input ~ 0
J1POWER
Text GLabel 3725 7140 0    50   Input ~ 0
J2POWER
Wire Wire Line
	3725 6790 3975 6790
Wire Wire Line
	3975 7140 3725 7140
$Comp
L power:VDD #PWR0112
U 1 1 5D9B72D2
P 5775 6985
F 0 "#PWR0112" H 5775 6835 50  0001 C CNN
F 1 "VDD" H 5792 7158 50  0000 C CNN
F 2 "" H 5775 6985 50  0001 C CNN
F 3 "" H 5775 6985 50  0001 C CNN
	1    5775 6985
	1    0    0    -1  
$EndComp
Wire Wire Line
	3975 6790 3975 6940
Connection ~ 3975 6940
Wire Wire Line
	3975 6940 3975 7140
Wire Notes Line
	5750 700  5750 6300
Text Notes 3665 7690 0    79   ~ 0
Power from Amiga
Wire Notes Line
	6900 7800 6900 6300
Wire Wire Line
	3975 6940 4175 6940
Wire Wire Line
	4175 6940 4175 6740
$Comp
L 74xx:74LS05 IC1
U 1 1 5D8C567A
P 1600 1350
F 0 "IC1" H 1600 1667 50  0000 C CNN
F 1 "74LS05" H 1600 1576 50  0000 C CNN
F 2 "Package_DIP:DIP-14_W7.62mm_Socket_LongPads" H 1600 1350 50  0001 C CNN
F 3 "http://www.ti.com/lit/gpn/sn74LS05" H 1600 1350 50  0001 C CNN
	1    1600 1350
	1    0    0    -1  
$EndComp
$Comp
L 74xx:74LS05 IC1
U 2 1 5D8CAB2D
P 1600 1900
F 0 "IC1" H 1600 2217 50  0000 C CNN
F 1 "74LS05" H 1600 2126 50  0000 C CNN
F 2 "Package_DIP:DIP-14_W7.62mm_Socket_LongPads" H 1600 1900 50  0001 C CNN
F 3 "http://www.ti.com/lit/gpn/sn74LS05" H 1600 1900 50  0001 C CNN
	2    1600 1900
	1    0    0    -1  
$EndComp
$Comp
L 74xx:74LS05 IC1
U 3 1 5D8CFF4F
P 1600 2450
F 0 "IC1" H 1600 2767 50  0000 C CNN
F 1 "74LS05" H 1600 2676 50  0000 C CNN
F 2 "Package_DIP:DIP-14_W7.62mm_Socket_LongPads" H 1600 2450 50  0001 C CNN
F 3 "http://www.ti.com/lit/gpn/sn74LS05" H 1600 2450 50  0001 C CNN
	3    1600 2450
	1    0    0    -1  
$EndComp
$Comp
L 74xx:74LS05 IC1
U 4 1 5D8DBB34
P 1600 3000
F 0 "IC1" H 1600 3317 50  0000 C CNN
F 1 "74LS05" H 1600 3226 50  0000 C CNN
F 2 "Package_DIP:DIP-14_W7.62mm_Socket_LongPads" H 1600 3000 50  0001 C CNN
F 3 "http://www.ti.com/lit/gpn/sn74LS05" H 1600 3000 50  0001 C CNN
	4    1600 3000
	1    0    0    -1  
$EndComp
$Comp
L 74xx:74LS05 IC1
U 5 1 5D8E5DA7
P 1600 3600
F 0 "IC1" H 1600 3917 50  0000 C CNN
F 1 "74LS05" H 1600 3826 50  0000 C CNN
F 2 "Package_DIP:DIP-14_W7.62mm_Socket_LongPads" H 1600 3600 50  0001 C CNN
F 3 "http://www.ti.com/lit/gpn/sn74LS05" H 1600 3600 50  0001 C CNN
	5    1600 3600
	1    0    0    -1  
$EndComp
$Comp
L 74xx:74LS05 IC1
U 6 1 5D8EEC06
P 1600 4200
F 0 "IC1" H 1600 4517 50  0000 C CNN
F 1 "74LS05" H 1600 4426 50  0000 C CNN
F 2 "Package_DIP:DIP-14_W7.62mm_Socket_LongPads" H 1600 4200 50  0001 C CNN
F 3 "http://www.ti.com/lit/gpn/sn74LS05" H 1600 4200 50  0001 C CNN
	6    1600 4200
	1    0    0    -1  
$EndComp
Wire Wire Line
	2100 4200 1900 4200
Text GLabel 2100 4200 2    50   Input ~ 0
J1POTX
$Comp
L 74xx:74LS05 IC2
U 1 1 5D9406AC
P 3900 1350
F 0 "IC2" H 3900 1667 50  0000 C CNN
F 1 "74LS05" H 3900 1576 50  0000 C CNN
F 2 "Package_DIP:DIP-14_W7.62mm_Socket_LongPads" H 3900 1350 50  0001 C CNN
F 3 "http://www.ti.com/lit/gpn/sn74LS05" H 3900 1350 50  0001 C CNN
	1    3900 1350
	1    0    0    -1  
$EndComp
$Comp
L 74xx:74LS05 IC2
U 2 1 5D94154F
P 3900 1900
F 0 "IC2" H 3900 2217 50  0000 C CNN
F 1 "74LS05" H 3900 2126 50  0000 C CNN
F 2 "Package_DIP:DIP-14_W7.62mm_Socket_LongPads" H 3900 1900 50  0001 C CNN
F 3 "http://www.ti.com/lit/gpn/sn74LS05" H 3900 1900 50  0001 C CNN
	2    3900 1900
	1    0    0    -1  
$EndComp
$Comp
L 74xx:74LS05 IC2
U 3 1 5D9425EA
P 3900 2450
F 0 "IC2" H 3900 2767 50  0000 C CNN
F 1 "74LS05" H 3900 2676 50  0000 C CNN
F 2 "Package_DIP:DIP-14_W7.62mm_Socket_LongPads" H 3900 2450 50  0001 C CNN
F 3 "http://www.ti.com/lit/gpn/sn74LS05" H 3900 2450 50  0001 C CNN
	3    3900 2450
	1    0    0    -1  
$EndComp
$Comp
L 74xx:74LS05 IC2
U 4 1 5D9433BF
P 3900 3000
F 0 "IC2" H 3900 3317 50  0000 C CNN
F 1 "74LS05" H 3900 3226 50  0000 C CNN
F 2 "Package_DIP:DIP-14_W7.62mm_Socket_LongPads" H 3900 3000 50  0001 C CNN
F 3 "http://www.ti.com/lit/gpn/sn74LS05" H 3900 3000 50  0001 C CNN
	4    3900 3000
	1    0    0    -1  
$EndComp
$Comp
L 74xx:74LS05 IC2
U 5 1 5D9442F1
P 3900 3600
F 0 "IC2" H 3900 3917 50  0000 C CNN
F 1 "74LS05" H 3900 3826 50  0000 C CNN
F 2 "Package_DIP:DIP-14_W7.62mm_Socket_LongPads" H 3900 3600 50  0001 C CNN
F 3 "http://www.ti.com/lit/gpn/sn74LS05" H 3900 3600 50  0001 C CNN
	5    3900 3600
	1    0    0    -1  
$EndComp
$Comp
L 74xx:74LS05 IC2
U 6 1 5D94544D
P 3900 4200
F 0 "IC2" H 3900 4517 50  0000 C CNN
F 1 "74LS05" H 3900 4426 50  0000 C CNN
F 2 "Package_DIP:DIP-14_W7.62mm_Socket_LongPads" H 3900 4200 50  0001 C CNN
F 3 "http://www.ti.com/lit/gpn/sn74LS05" H 3900 4200 50  0001 C CNN
	6    3900 4200
	1    0    0    -1  
$EndComp
Wire Wire Line
	4200 4200 4400 4200
Wire Wire Line
	4200 3600 4400 3600
Wire Wire Line
	4200 3000 4400 3000
Wire Wire Line
	4200 2450 4400 2450
Wire Wire Line
	4200 1900 4400 1900
Wire Wire Line
	4200 1350 4400 1350
Text GLabel 4400 3600 2    50   Input ~ 0
J2FIRE
Text GLabel 4400 4200 2    50   Input ~ 0
J2POTX
Text GLabel 4400 3000 2    50   Input ~ 0
J2RIGHT
Text GLabel 4400 2450 2    50   Input ~ 0
J2LEFT
Text GLabel 4400 1900 2    50   Input ~ 0
J2DOWN
Text GLabel 4400 1350 2    50   Input ~ 0
J2UP
$Comp
L 74xx:74LS05 IC2
U 7 1 5D9A4361
P 3255 5200
F 0 "IC2" H 3026 5246 50  0000 R CNN
F 1 "74LS05" H 3026 5155 50  0000 R CNN
F 2 "Package_DIP:DIP-14_W7.62mm_Socket_LongPads" H 3255 5200 50  0001 C CNN
F 3 "http://www.ti.com/lit/gpn/sn74LS05" H 3255 5200 50  0001 C CNN
	7    3255 5200
	1    0    0    -1  
$EndComp
$Comp
L power:VDDA #PWR0114
U 1 1 5D9D0395
P 4175 6740
F 0 "#PWR0114" H 4175 6590 50  0001 C CNN
F 1 "VDDA" H 4192 6913 50  0000 C CNN
F 2 "" H 4175 6740 50  0001 C CNN
F 3 "" H 4175 6740 50  0001 C CNN
	1    4175 6740
	1    0    0    -1  
$EndComp
$Comp
L power:VDDA #PWR0113
U 1 1 5D9E2A4D
P 3455 4625
F 0 "#PWR0113" H 3455 4475 50  0001 C CNN
F 1 "VDDA" H 3472 4798 50  0000 C CNN
F 2 "" H 3455 4625 50  0001 C CNN
F 3 "" H 3455 4625 50  0001 C CNN
	1    3455 4625
	1    0    0    -1  
$EndComp
$Comp
L power:GND #PWR0106
U 1 1 5D9F2574
P 3455 5785
F 0 "#PWR0106" H 3455 5535 50  0001 C CNN
F 1 "GND" H 3460 5612 50  0000 C CNN
F 2 "" H 3455 5785 50  0001 C CNN
F 3 "" H 3455 5785 50  0001 C CNN
	1    3455 5785
	1    0    0    -1  
$EndComp
$Comp
L Mechanical:MountingHole_Pad H1
U 1 1 5F6B0E64
P 10000 1750
F 0 "H1" H 10100 1799 50  0000 L CNN
F 1 "MountingHole_Pad" H 10100 1708 50  0000 L CNN
F 2 "MountingHole:MountingHole_3.2mm_M3_Pad_Via" H 10000 1750 50  0001 C CNN
F 3 "~" H 10000 1750 50  0001 C CNN
	1    10000 1750
	1    0    0    -1  
$EndComp
$Comp
L power:GND #PWR0116
U 1 1 5F6BE84B
P 10000 2050
F 0 "#PWR0116" H 10000 1800 50  0001 C CNN
F 1 "GND" H 10005 1877 50  0000 C CNN
F 2 "" H 10000 2050 50  0001 C CNN
F 3 "" H 10000 2050 50  0001 C CNN
	1    10000 2050
	1    0    0    -1  
$EndComp
Wire Wire Line
	10000 1850 10000 2050
Wire Notes Line
	4800 6300 4800 7800
Wire Wire Line
	5515 7065 5775 7065
Wire Wire Line
	5775 7065 5775 6985
Wire Wire Line
	5215 7065 4995 7065
Wire Wire Line
	4995 7065 4995 7020
$Comp
L power:VDDA #PWR0103
U 1 1 5FCA8C99
P 4995 7020
F 0 "#PWR0103" H 4995 6870 50  0001 C CNN
F 1 "VDDA" H 5012 7193 50  0000 C CNN
F 2 "" H 4995 7020 50  0001 C CNN
F 3 "" H 4995 7020 50  0001 C CNN
	1    4995 7020
	1    0    0    -1  
$EndComp
Text Notes 5750 7690 0    79   ~ 0
Power to ESP32
$Comp
L Device:D D1
U 1 1 5FCC613E
P 5365 7065
F 0 "D1" H 5365 6848 50  0000 C CNN
F 1 "1n5817" H 5365 6939 50  0000 C CNN
F 2 "Diode_THT:D_DO-41_SOD81_P10.16mm_Horizontal" H 5365 7065 50  0001 C CNN
F 3 "~" H 5365 7065 50  0001 C CNN
	1    5365 7065
	-1   0    0    1   
$EndComp
$Comp
L Connector:DB9_Female_MountingHoles J1
U 1 1 5FD56F28
P 7300 1700
F 0 "J1" H 7480 1702 50  0000 L CNN
F 1 "JOY1" H 7480 1611 50  0000 L CNN
F 2 "Unijoysticle:DB_9F" H 7300 1700 50  0001 C CNN
F 3 " ~" H 7300 1700 50  0001 C CNN
	1    7300 1700
	1    0    0    -1  
$EndComp
Wire Wire Line
	7300 2300 7300 2355
Wire Wire Line
	7300 2355 6900 2355
Connection ~ 6900 2355
Wire Wire Line
	6900 2355 6900 2400
$Comp
L Connector:DB9_Female_MountingHoles J2
U 1 1 5FD67041
P 8500 1750
F 0 "J2" H 8735 1795 50  0000 C CNN
F 1 "JOY2" H 8780 1710 50  0000 C CNN
F 2 "Unijoysticle:DB_9F" H 8500 1750 50  0001 C CNN
F 3 " ~" H 8500 1750 50  0001 C CNN
	1    8500 1750
	-1   0    0    -1  
$EndComp
Wire Wire Line
	8500 2350 8500 2375
Wire Wire Line
	8500 2375 8900 2375
Connection ~ 8900 2375
Wire Wire Line
	8900 2375 8900 2400
$Comp
L power:GND #PWR0110
U 1 1 5FD78840
P 10880 1100
F 0 "#PWR0110" H 10880 850 50  0001 C CNN
F 1 "GND" H 10885 927 50  0000 C CNN
F 2 "" H 10880 1100 50  0001 C CNN
F 3 "" H 10880 1100 50  0001 C CNN
	1    10880 1100
	1    0    0    -1  
$EndComp
$Comp
L power:PWR_FLAG #FLG0103
U 1 1 5FD797DA
P 10880 1100
F 0 "#FLG0103" H 10880 1175 50  0001 C CNN
F 1 "PWR_FLAG" H 10880 1273 50  0000 C CNN
F 2 "" H 10880 1100 50  0001 C CNN
F 3 "~" H 10880 1100 50  0001 C CNN
	1    10880 1100
	1    0    0    -1  
$EndComp
$Comp
L power:VDD #PWR0101
U 1 1 5DC9AE68
P 10000 1100
F 0 "#PWR0101" H 10000 950 50  0001 C CNN
F 1 "VDD" H 10017 1273 50  0000 C CNN
F 2 "" H 10000 1100 50  0001 C CNN
F 3 "" H 10000 1100 50  0001 C CNN
	1    10000 1100
	1    0    0    -1  
$EndComp
$Comp
L power:PWR_FLAG #FLG0101
U 1 1 5DC9B409
P 10000 1100
F 0 "#FLG0101" H 10000 1175 50  0001 C CNN
F 1 "PWR_FLAG" H 10000 1273 50  0000 C CNN
F 2 "" H 10000 1100 50  0001 C CNN
F 3 "~" H 10000 1100 50  0001 C CNN
	1    10000 1100
	-1   0    0    1   
$EndComp
$Comp
L power:PWR_FLAG #FLG0102
U 1 1 5DA43568
P 10450 1100
F 0 "#FLG0102" H 10450 1175 50  0001 C CNN
F 1 "PWR_FLAG" H 10450 1273 50  0000 C CNN
F 2 "" H 10450 1100 50  0001 C CNN
F 3 "~" H 10450 1100 50  0001 C CNN
	1    10450 1100
	-1   0    0    1   
$EndComp
$Comp
L power:VDDA #PWR0115
U 1 1 5DA42FB3
P 10450 1100
F 0 "#PWR0115" H 10450 950 50  0001 C CNN
F 1 "VDDA" H 10467 1273 50  0000 C CNN
F 2 "" H 10450 1100 50  0001 C CNN
F 3 "" H 10450 1100 50  0001 C CNN
	1    10450 1100
	1    0    0    -1  
$EndComp
Text GLabel 3400 4200 0    50   Input ~ 0
GPIO_J2POTX
$Comp
L esp32_mh_et_live:ESP32_MH_ET_LIVE B1
U 1 1 5FDA8C70
P 7710 3825
F 0 "B1" H 7710 4640 50  0000 C CNN
F 1 "ESP32_MH_ET_LIVE" H 7710 4549 50  0000 C CNN
F 2 "Unijoysticle:ESP32_MH_ET" H 7685 2825 50  0001 C CNN
F 3 "" H 7685 2825 50  0001 C CNN
	1    7710 3825
	1    0    0    -1  
$EndComp
$Comp
L esp32_mh_et_live:ESP32_MH_ET_LIVE B1
U 2 1 5FDAA117
P 7710 5515
F 0 "B1" H 7710 6330 50  0000 C CNN
F 1 "ESP32_MH_ET_LIVE" H 7710 6239 50  0000 C CNN
F 2 "Unijoysticle:ESP32_MH_ET" H 7685 4515 50  0001 C CNN
F 3 "" H 7685 4515 50  0001 C CNN
	2    7710 5515
	1    0    0    -1  
$EndComp
$Comp
L power:GND #PWR0117
U 1 1 5FDE849A
P 6760 4350
F 0 "#PWR0117" H 6760 4100 50  0001 C CNN
F 1 "GND" H 6765 4177 50  0000 C CNN
F 2 "" H 6760 4350 50  0001 C CNN
F 3 "" H 6760 4350 50  0001 C CNN
	1    6760 4350
	1    0    0    -1  
$EndComp
Wire Wire Line
	6760 4250 7010 4250
Wire Wire Line
	6760 4250 6760 4350
NoConn ~ 7010 5240
NoConn ~ 7010 5940
$Comp
L power:GND #PWR0118
U 1 1 5FE28A8C
P 8505 4350
F 0 "#PWR0118" H 8505 4100 50  0001 C CNN
F 1 "GND" H 8510 4177 50  0000 C CNN
F 2 "" H 8505 4350 50  0001 C CNN
F 3 "" H 8505 4350 50  0001 C CNN
	1    8505 4350
	-1   0    0    -1  
$EndComp
Wire Wire Line
	8410 3750 8860 3750
Wire Wire Line
	8505 4350 8505 3650
Wire Wire Line
	8410 3650 8505 3650
Wire Wire Line
	8660 3215 8660 3550
$Comp
L Device:D D3
U 1 1 5FDD1982
P 8645 3950
F 0 "D3" H 8645 4167 50  0000 C CNN
F 1 "1n4148" H 8645 4076 50  0000 C CNN
F 2 "Diode_THT:D_DO-35_SOD27_P7.62mm_Horizontal" H 8645 3950 50  0001 C CNN
F 3 "~" H 8645 3950 50  0001 C CNN
	1    8645 3950
	-1   0    0    -1  
$EndComp
Wire Wire Line
	8410 3950 8495 3950
Wire Wire Line
	8410 4050 8460 4050
$Comp
L Device:D D2
U 1 1 5FDD541E
P 8610 4050
F 0 "D2" H 8610 3945 50  0000 C CNN
F 1 "1n4148" H 8545 3860 50  0000 C CNN
F 2 "Diode_THT:D_DO-35_SOD27_P7.62mm_Horizontal" H 8610 4050 50  0001 C CNN
F 3 "~" H 8610 4050 50  0001 C CNN
	1    8610 4050
	-1   0    0    -1  
$EndComp
Text GLabel 8860 3950 2    50   Input ~ 0
J2FIRE
Wire Wire Line
	8860 3950 8795 3950
Wire Wire Line
	8800 2150 9195 2150
Text GLabel 9195 2150 2    50   Input ~ 0
J2POTY
Text GLabel 8860 4050 2    50   Input ~ 0
J2POTY
Wire Wire Line
	8760 4050 8860 4050
NoConn ~ 8410 4150
NoConn ~ 8410 4250
NoConn ~ 7010 3550
NoConn ~ 7010 3650
NoConn ~ 7010 3750
NoConn ~ 8410 5740
NoConn ~ 8410 5640
NoConn ~ 8410 5440
NoConn ~ 7010 5840
Wire Wire Line
	3455 4625 3455 4700
Wire Wire Line
	3455 4700 3255 4700
Wire Wire Line
	3455 5785 3455 5700
Wire Wire Line
	3455 5700 3255 5700
$Comp
L 74xx:74LS05 IC1
U 7 1 5D93A18B
P 1850 5200
F 0 "IC1" H 1621 5246 50  0000 R CNN
F 1 "74LS05" H 1621 5155 50  0000 R CNN
F 2 "Package_DIP:DIP-14_W7.62mm_Socket_LongPads" H 1850 5200 50  0001 C CNN
F 3 "http://www.ti.com/lit/gpn/sn74LS05" H 1850 5200 50  0001 C CNN
	7    1850 5200
	1    0    0    -1  
$EndComp
Connection ~ 3455 5700
Connection ~ 3455 4700
Wire Wire Line
	3655 5350 3655 5700
Wire Wire Line
	3655 4700 3655 5050
$Comp
L Device:C C2
U 1 1 5FE8B190
P 3655 5200
F 0 "C2" H 3770 5246 50  0000 L CNN
F 1 "100n" H 3770 5155 50  0000 L CNN
F 2 "Capacitor_THT:C_Disc_D7.5mm_W2.5mm_P5.00mm" H 3693 5050 50  0001 C CNN
F 3 "~" H 3655 5200 50  0001 C CNN
	1    3655 5200
	1    0    0    -1  
$EndComp
Wire Wire Line
	3655 4700 3455 4700
Wire Wire Line
	3655 5700 3455 5700
$Comp
L power:VDDA #PWR0105
U 1 1 5FEAE166
P 2050 4625
F 0 "#PWR0105" H 2050 4475 50  0001 C CNN
F 1 "VDDA" H 2067 4798 50  0000 C CNN
F 2 "" H 2050 4625 50  0001 C CNN
F 3 "" H 2050 4625 50  0001 C CNN
	1    2050 4625
	1    0    0    -1  
$EndComp
$Comp
L power:GND #PWR0111
U 1 1 5FEAE170
P 2050 5785
F 0 "#PWR0111" H 2050 5535 50  0001 C CNN
F 1 "GND" H 2055 5612 50  0000 C CNN
F 2 "" H 2050 5785 50  0001 C CNN
F 3 "" H 2050 5785 50  0001 C CNN
	1    2050 5785
	1    0    0    -1  
$EndComp
Wire Wire Line
	2050 4625 2050 4700
Wire Wire Line
	2050 4700 1850 4700
Wire Wire Line
	2050 5785 2050 5700
Wire Wire Line
	2050 5700 1850 5700
Connection ~ 2050 5700
Connection ~ 2050 4700
Wire Wire Line
	2250 5350 2250 5700
Wire Wire Line
	2250 4700 2250 5050
$Comp
L Device:C C1
U 1 1 5FEAE182
P 2250 5200
F 0 "C1" H 2365 5246 50  0000 L CNN
F 1 "100n" H 2365 5155 50  0000 L CNN
F 2 "Capacitor_THT:C_Disc_D7.5mm_W2.5mm_P5.00mm" H 2288 5050 50  0001 C CNN
F 3 "~" H 2250 5200 50  0001 C CNN
	1    2250 5200
	1    0    0    -1  
$EndComp
Wire Wire Line
	2250 4700 2050 4700
Wire Wire Line
	2250 5700 2050 5700
$Comp
L Device:D D5
U 1 1 5FED75F0
P 8645 5140
F 0 "D5" H 8645 5357 50  0000 C CNN
F 1 "1n4148" H 8645 5266 50  0000 C CNN
F 2 "Diode_THT:D_DO-35_SOD27_P7.62mm_Horizontal" H 8645 5140 50  0001 C CNN
F 3 "~" H 8645 5140 50  0001 C CNN
	1    8645 5140
	-1   0    0    -1  
$EndComp
Text GLabel 8860 5140 2    50   Input ~ 0
J1FIRE
Wire Wire Line
	8860 5140 8795 5140
Text GLabel 6610 5040 0    50   Input ~ 0
J1POTY
Wire Wire Line
	8410 5140 8495 5140
Wire Wire Line
	6935 5040 7010 5040
$Comp
L Device:R R4
U 1 1 5FF3EB6E
P 9070 1095
F 0 "R4" H 9140 1141 50  0000 L CNN
F 1 "470" H 9140 1050 50  0000 L CNN
F 2 "Resistor_THT:R_Axial_DIN0204_L3.6mm_D1.6mm_P7.62mm_Horizontal" V 9000 1095 50  0001 C CNN
F 3 "~" H 9070 1095 50  0001 C CNN
	1    9070 1095
	1    0    0    -1  
$EndComp
Wire Wire Line
	9070 1245 9070 2050
Connection ~ 9070 2050
Wire Wire Line
	9070 2050 9195 2050
$Comp
L Device:R R3
U 1 1 5FF44AD4
P 6645 1095
F 0 "R3" H 6576 1141 50  0000 R CNN
F 1 "470" H 6576 1050 50  0000 R CNN
F 2 "Resistor_THT:R_Axial_DIN0204_L3.6mm_D1.6mm_P7.62mm_Horizontal" V 6575 1095 50  0001 C CNN
F 3 "~" H 6645 1095 50  0001 C CNN
	1    6645 1095
	1    0    0    -1  
$EndComp
Wire Wire Line
	6645 1245 6645 2000
Connection ~ 6645 2000
Wire Wire Line
	6645 2000 6475 2000
$Comp
L power:VDDA #PWR0119
U 1 1 5FF4B9EC
P 6645 945
F 0 "#PWR0119" H 6645 795 50  0001 C CNN
F 1 "VDDA" H 6662 1118 50  0000 C CNN
F 2 "" H 6645 945 50  0001 C CNN
F 3 "" H 6645 945 50  0001 C CNN
	1    6645 945 
	1    0    0    -1  
$EndComp
$Comp
L power:VDDA #PWR0120
U 1 1 5FF52927
P 9070 945
F 0 "#PWR0120" H 9070 795 50  0001 C CNN
F 1 "VDDA" H 9087 1118 50  0000 C CNN
F 2 "" H 9070 945 50  0001 C CNN
F 3 "" H 9070 945 50  0001 C CNN
	1    9070 945 
	1    0    0    -1  
$EndComp
$Comp
L Device:D D4
U 1 1 5FED7C4A
P 6785 5040
F 0 "D4" H 6785 4935 50  0000 C CNN
F 1 "1n4148" H 6720 4850 50  0000 C CNN
F 2 "Diode_THT:D_DO-35_SOD27_P7.62mm_Horizontal" H 6785 5040 50  0001 C CNN
F 3 "~" H 6785 5040 50  0001 C CNN
	1    6785 5040
	1    0    0    1   
$EndComp
Wire Wire Line
	6635 5040 6610 5040
Wire Wire Line
	7000 2100 6475 2100
Text GLabel 6475 2100 0    50   Input ~ 0
J1POTY
$Comp
L power:GND #PWR02
U 1 1 5FEA8981
P 6330 7265
F 0 "#PWR02" H 6330 7015 50  0001 C CNN
F 1 "GND" H 6335 7092 50  0000 C CNN
F 2 "" H 6330 7265 50  0001 C CNN
F 3 "" H 6330 7265 50  0001 C CNN
	1    6330 7265
	1    0    0    -1  
$EndComp
Wire Wire Line
	6330 6710 6330 6770
Wire Wire Line
	6130 7145 6130 7210
$Comp
L Device:CP1 C3
U 1 1 5FED917C
P 6130 6995
F 0 "C3" H 6245 7041 50  0000 L CNN
F 1 "470u" H 6245 6950 50  0000 L CNN
F 2 "Capacitor_THT:CP_Radial_D6.3mm_P2.50mm" H 6130 6995 50  0001 C CNN
F 3 "~" H 6130 6995 50  0001 C CNN
	1    6130 6995
	1    0    0    -1  
$EndComp
$Comp
L power:VDD #PWR0121
U 1 1 5FF107D2
P 6330 6710
F 0 "#PWR0121" H 6330 6560 50  0001 C CNN
F 1 "VDD" H 6347 6883 50  0000 C CNN
F 2 "" H 6330 6710 50  0001 C CNN
F 3 "" H 6330 6710 50  0001 C CNN
	1    6330 6710
	1    0    0    -1  
$EndComp
$Comp
L Device:C C4
U 1 1 5FE97B25
P 6520 6995
F 0 "C4" H 6635 7041 50  0000 L CNN
F 1 "100n" H 6635 6950 50  0000 L CNN
F 2 "Capacitor_THT:C_Disc_D7.5mm_W2.5mm_P5.00mm" H 6558 6845 50  0001 C CNN
F 3 "~" H 6520 6995 50  0001 C CNN
	1    6520 6995
	1    0    0    -1  
$EndComp
Wire Wire Line
	6130 6770 6330 6770
Wire Wire Line
	6520 6770 6520 6845
Wire Wire Line
	6130 6770 6130 6845
Wire Wire Line
	6520 7145 6520 7210
Wire Wire Line
	6520 7210 6330 7210
Wire Wire Line
	6330 7210 6330 7265
Connection ~ 6330 6770
Wire Wire Line
	6330 6770 6520 6770
Connection ~ 6330 7210
Wire Wire Line
	6330 7210 6130 7210
$Comp
L void:Void V0
U 1 1 5FEF69CA
P 10255 2180
F 0 "V0" H 10333 2226 50  0000 L CNN
F 1 "UNIJOYSTICLE_LOGO" H 10333 2135 50  0000 L CNN
F 2 "Unijoysticle:unijoysticle_logo" H 10255 2180 50  0001 C CNN
F 3 "" H 10255 2180 50  0001 C CNN
	1    10255 2180
	1    0    0    -1  
$EndComp
Text Notes 6230 7380 2    50   ~ 0
Use the largest\ncap you can fit
$EndSCHEMATC
